; Engine configuration file.
; It's best edited using the editor UI and not directly,
; since the parameters that go here are not all obvious.
;
; Format:
;   [section] ; section goes between []
;   param=value ; assign values to parameters

config_version=4

_global_script_classes=[  ]
_global_script_class_icons={

}

[android]

module=false

[application]

config/name="Server + Noyau"
run/main_scene="res://server_scene.tscn"
config/icon="res://icon.png"

[autoload]

network="*res://scripts/network.gd"
rpc_node="*res://Network/rpc_node.gd"
global="*res://scripts/global.gd"
ServerFacade="*res://scripts/objects/ServerFacade.gd"

[editor_plugins]

enabled=PoolStringArray( "gut" )

[global]

module=false
modules=false

[rendering]

environment/default_environment="res://default_env.tres"
